<?xml version="1.0" standalone="no"?>
<!DOCTYPE svg PUBLIC "-//W3C//DTD SVG 1.1//EN" "http://www.w3.org/Graphics/SVG/1.1/DTD/svg11.dtd" >
<svg xmlns="http://www.w3.org/2000/svg" xmlns:xlink="http://www.w3.org/1999/xlink" version="1.1" viewBox="-10 0 265 256">
  <g transform="matrix(1 0 0 -1 0 220)">
   <path fill="currentColor"
d="M28 199v-122l6 -6q2 -4 2 -8h8l38 -48q7 -4 10 -4q0 -4 2 -8l30 -28h8l16 12q0 3 76 90v122h-8l-40 -8h-44l-8 -4q-2 0 -4 2q-4 2 -8 2h-42l-42 8v0zM44 183q0 -1 20 -6l60 -6h14q5 1 46 6l16 4q2 2 4 2v-102q0 -5 -42 -46q-2 -4 -2 -8h-8q0 -4 -2 -8q-11 -12 -18 -12v-8
h-6q-55 53 -82 86v98v0z" />
  </g>

</svg>
