<?xml version="1.0" standalone="no"?>
<!DOCTYPE svg PUBLIC "-//W3C//DTD SVG 1.1//EN" "http://www.w3.org/Graphics/SVG/1.1/DTD/svg11.dtd" >
<svg xmlns="http://www.w3.org/2000/svg" xmlns:xlink="http://www.w3.org/1999/xlink" version="1.1" viewBox="-10 0 265 256">
  <g transform="matrix(1 0 0 -1 0 220)">
   <path fill="currentColor"
d="M64 147q-38 -12 -38 -16l-6 -54v-15q1 -6 6 -47q0 -6 8 -12l6 -2l16 -4q6 -4 20 -8l48 -6h12l36 6l42 14q8 6 8 12q2 3 2 6v37q4 13 4 15v5q-4 13 -4 15v42h-4l-36 12v6l-12 46l-8 4q-20 4 -24 4h-48v-2q-7 -1 -18 -6l-4 -24q-1 -5 -6 -22v-6v0zM100 187h48v-20l10 -36
q5 -5 30 -14q8 -2 16 -2q0 -8 2 -16q2 -4 2 -8v-34q-1 0 -6 -30q0 -2 -8 -4q-14 -4 -44 -16h-38q-31 2 -66 20q-1 9 -6 30v28q0 5 2 10q2 10 2 20q8 0 16 2l8 4q16 5 16 6q5 6 6 12l10 48v0z" />
  </g>

</svg>
