<?xml version="1.0" encoding="UTF-8" standalone="no"?>
<svg
   xmlns:ooo="http://xml.openoffice.org/svg/export"
   xmlns:dc="http://purl.org/dc/elements/1.1/"
   xmlns:cc="http://creativecommons.org/ns#"
   xmlns:rdf="http://www.w3.org/1999/02/22-rdf-syntax-ns#"
   xmlns:svg="http://www.w3.org/2000/svg"
   xmlns="http://www.w3.org/2000/svg"
   xmlns:sodipodi="http://sodipodi.sourceforge.net/DTD/sodipodi-0.dtd"
   xmlns:inkscape="http://www.inkscape.org/namespaces/inkscape"
   version="1.2"
   width="387.09033"
   height="288.82648"
   viewBox="0 0 10241.765 7641.8672"
   preserveAspectRatio="xMidYMid"
   xml:space="preserve"
   id="svg1819"
   style="fill-rule:evenodd;stroke-width:28.22200012;stroke-linejoin:round"
   inkscape:version="0.92.4 (5da689c313, 2019-01-14)"
   sodipodi:docname="ids1.svg"><title
   id="title3316">⿰出頁</title><metadata
   id="metadata1823"><rdf:RDF><cc:Work
       rdf:about=""><dc:format>image/svg+xml</dc:format><dc:type
         rdf:resource="http://purl.org/dc/dcmitype/StillImage" /><dc:title>⿰出頁</dc:title><cc:license
         rdf:resource="http://creativecommons.org/licenses/by/4.0/" /><dc:creator><cc:Agent><dc:title>Danny Lin</dc:title></cc:Agent></dc:creator></cc:Work><cc:License
       rdf:about="http://creativecommons.org/licenses/by/4.0/"><cc:permits
         rdf:resource="http://creativecommons.org/ns#Reproduction" /><cc:permits
         rdf:resource="http://creativecommons.org/ns#Distribution" /><cc:requires
         rdf:resource="http://creativecommons.org/ns#Notice" /><cc:requires
         rdf:resource="http://creativecommons.org/ns#Attribution" /><cc:permits
         rdf:resource="http://creativecommons.org/ns#DerivativeWorks" /></cc:License></rdf:RDF></metadata><sodipodi:namedview
   pagecolor="#ffffff"
   bordercolor="#666666"
   borderopacity="1"
   objecttolerance="10"
   gridtolerance="10"
   guidetolerance="10"
   inkscape:pageopacity="0"
   inkscape:pageshadow="2"
   inkscape:window-width="1473"
   inkscape:window-height="778"
   id="namedview1821"
   showgrid="false"
   inkscape:current-layer="svg1819" />
 <defs
   class="ClipPathGroup"
   id="defs1525">
  <clipPath
   id="presentation_clip_path"
   clipPathUnits="userSpaceOnUse">
   <rect
   x="0"
   y="0"
   width="28000"
   height="15750"
   id="rect1519" />
  </clipPath>
  <clipPath
   id="presentation_clip_path_shrink"
   clipPathUnits="userSpaceOnUse">
   <rect
   x="28"
   y="15"
   width="27944"
   height="15719"
   id="rect1522" />
  </clipPath>
     </defs>
 <defs
   id="defs1542">
  <font
   id="EmbeddedFont_1"
   horiz-adv-x="2048"
   horiz-origin-x="0"
   horiz-origin-y="0"
   vert-origin-x="45"
   vert-origin-y="90"
   vert-adv-y="90">
   <font-face
   font-family="微軟正黑體 embedded"
   units-per-em="2048"
   font-weight="normal"
   font-style="normal"
   ascent="2201"
   descent="529"
   id="font-face1527" />
   <missing-glyph
   horiz-adv-x="2048"
   d="M 0,0 L 2047,0 2047,2047 0,2047 0,0 Z"
   id="missing-glyph1529" />
   <glyph
   unicode="虫"
   horiz-adv-x="1821"
   d="M 1929,-45 L 1841,-106 C 1794,-9 1749,72 1706,139 1192,39 679,-31 168,-72 L 143,35 C 450,57 729,86 981,123 L 981,651 297,651 297,1360 981,1360 981,1694 1090,1694 1090,1360 1774,1360 1774,651 1090,651 1090,139 C 1297,174 1481,207 1640,240 1591,318 1540,390 1487,457 L 1573,516 C 1737,301 1856,114 1929,-45 Z M 1663,760 L 1663,1251 1090,1251 1090,760 1663,760 Z M 981,760 L 981,1251 408,1251 408,760 981,760 Z"
   id="glyph1531" />
   <glyph
   unicode="心"
   horiz-adv-x="1800"
   d="M 1333,1139 L 1241,1065 C 1137,1252 983,1437 780,1622 L 864,1698 C 1057,1519 1214,1333 1333,1139 Z M 1524,479 C 1516,350 1504,242 1489,156 1473,69 1455,13 1434,-13 1413,-39 1386,-57 1351,-67 1316,-77 1235,-82 1108,-82 1013,-82 935,-80 872,-75 809,-71 763,-56 736,-30 708,-5 694,32 694,80 L 694,1217 805,1217 805,111 C 805,92 811,76 822,61 833,46 845,38 856,35 867,32 919,31 1010,30 L 1276,29 C 1297,29 1317,38 1338,56 1359,73 1376,133 1389,234 1402,335 1408,430 1407,518 L 1524,479 Z M 1921,246 L 1806,205 C 1755,432 1650,692 1491,983 L 1591,1042 C 1747,735 1857,469 1921,246 Z M 514,1008 C 430,635 334,342 227,127 L 127,197 C 243,405 335,687 403,1042 L 514,1008 Z"
   id="glyph1533" />
   <glyph
   unicode="勿"
   horiz-adv-x="1779"
   d="M 1872,1423 C 1872,1097 1862,801 1843,536 1823,270 1802,110 1779,56 1756,1 1723,-39 1682,-64 1640,-89 1536,-102 1371,-102 1336,-102 1299,-101 1262,-100 L 1217,14 C 1324,12 1411,11 1480,11 1539,11 1579,15 1598,22 1617,29 1635,40 1650,54 1665,67 1677,84 1685,105 1692,126 1704,216 1720,375 1736,534 1747,690 1754,841 1760,992 1762,1150 1761,1317 L 1485,1317 C 1439,1022 1346,770 1206,561 1066,352 811,137 442,-86 L 365,4 C 695,191 935,383 1084,581 1233,779 1331,1024 1376,1317 L 1053,1317 C 1008,1136 910,963 761,796 611,629 434,493 231,389 L 160,475 C 355,574 522,698 663,848 803,998 894,1154 936,1317 L 580,1317 C 451,1152 326,1025 205,938 L 123,1016 C 392,1218 572,1442 664,1688 L 768,1659 C 740,1578 702,1500 653,1423 L 1872,1423 Z"
   id="glyph1535" />
   <glyph
   unicode="⿱"
   horiz-adv-x="1588"
   d="M 248,1528 L 392,1528 392,1480 248,1480 248,1528 Z M 488,1528 L 632,1528 632,1480 488,1480 488,1528 Z M 728,1528 L 872,1528 872,1480 728,1480 728,1528 Z M 968,1528 L 1112,1528 1112,1480 968,1480 968,1528 Z M 1200,1528 L 1344,1528 1344,1480 1200,1480 1200,1528 Z M 1432,1528 L 1576,1528 1576,1480 1432,1480 1432,1528 Z M 1664,1528 L 1808,1528 1808,1480 1664,1480 1664,1528 Z M 248,8 L 392,8 392,-40 248,-40 248,8 Z M 488,8 L 632,8 632,-40 488,-40 488,8 Z M 728,8 L 872,8 872,-40 728,-40 728,8 Z M 968,8 L 1112,8 1112,-40 968,-40 968,8 Z M 1200,8 L 1344,8 1344,-40 1200,-40 1200,8 Z M 1432,8 L 1576,8 1576,-40 1432,-40 1432,8 Z M 1664,8 L 1808,8 1808,-40 1664,-40 1664,8 Z M 368,776 L 512,776 512,720 368,720 368,776 Z M 608,776 L 752,776 752,720 608,720 608,776 Z M 840,776 L 992,776 992,720 840,720 840,776 Z M 1080,776 L 1224,776 1224,720 1080,720 1080,776 Z M 1312,776 L 1456,776 1456,720 1312,720 1312,776 Z M 1544,776 L 1688,776 1688,720 1544,720 1544,776 Z M 248,112 L 248,248 304,248 304,112 248,112 Z M 248,352 L 248,488 304,488 304,352 248,352 Z M 248,584 L 248,720 304,720 304,584 248,584 Z M 248,816 L 248,952 304,952 304,816 248,816 Z M 248,1040 L 248,1176 304,1176 304,1040 248,1040 Z M 248,1256 L 248,1400 304,1400 304,1256 248,1256 Z M 1752,104 L 1752,240 1808,240 1808,104 1752,104 Z M 1752,344 L 1752,480 1808,480 1808,344 1752,344 Z M 1752,576 L 1752,712 1808,712 1808,576 1752,576 Z M 1752,808 L 1752,944 1808,944 1808,808 1752,808 Z M 1752,1032 L 1752,1168 1808,1168 1808,1032 1752,1032 Z M 1752,1248 L 1752,1392 1808,1392 1808,1248 1752,1248 Z"
   id="glyph1537" />
   <glyph
   unicode="⿰"
   horiz-adv-x="1588"
   d="M 248,1528 L 392,1528 392,1480 248,1480 248,1528 Z M 488,1528 L 632,1528 632,1480 488,1480 488,1528 Z M 728,1528 L 872,1528 872,1480 728,1480 728,1528 Z M 968,1528 L 1112,1528 1112,1480 968,1480 968,1528 Z M 1200,1528 L 1344,1528 1344,1480 1200,1480 1200,1528 Z M 1432,1528 L 1576,1528 1576,1480 1432,1480 1432,1528 Z M 1664,1528 L 1808,1528 1808,1480 1664,1480 1664,1528 Z M 248,8 L 392,8 392,-40 248,-40 248,8 Z M 480,8 L 624,8 624,-40 480,-40 480,8 Z M 720,8 L 864,8 864,-40 720,-40 720,8 Z M 968,8 L 1112,8 1112,-40 968,-40 968,8 Z M 1208,8 L 1352,8 1352,-40 1208,-40 1208,8 Z M 1440,8 L 1584,8 1584,-40 1440,-40 1440,8 Z M 1664,8 L 1808,8 1808,-40 1664,-40 1664,8 Z M 248,1248 L 248,1392 304,1392 304,1248 248,1248 Z M 248,1024 L 248,1168 304,1168 304,1024 248,1024 Z M 248,800 L 248,936 304,936 304,800 248,800 Z M 248,576 L 248,712 304,712 304,576 248,576 Z M 248,344 L 248,480 304,480 304,344 248,344 Z M 248,104 L 248,240 304,240 304,104 248,104 Z M 1000,1272 L 1000,1408 1064,1408 1064,1272 1000,1272 Z M 1000,1048 L 1000,1184 1064,1184 1064,1048 1000,1048 Z M 1000,816 L 1000,952 1064,952 1064,816 1000,816 Z M 1000,576 L 1000,712 1064,712 1064,576 1000,576 Z M 1000,344 L 1000,480 1064,480 1064,344 1000,344 Z M 1000,104 L 1000,240 1064,240 1064,104 1000,104 Z M 1752,112 L 1752,248 1808,248 1808,112 1752,112 Z M 1752,352 L 1752,488 1808,488 1808,352 1752,352 Z M 1752,584 L 1752,720 1808,720 1808,584 1752,584 Z M 1752,816 L 1752,952 1808,952 1808,816 1752,816 Z M 1752,1040 L 1752,1176 1808,1176 1808,1040 1752,1040 Z M 1752,1256 L 1752,1400 1808,1400 1808,1256 1752,1256 Z"
   id="glyph1539" />
  </font>
 </defs>
 <defs
   class="TextShapeIndex"
   id="defs1546">
  <g
   ooo:slide="id1"
   ooo:id-list="id3 id4 id5 id6 id7 id8 id9 id10 id11 id12 id13 id14 id15 id16 id17 id18 id19 id20 id21 id22 id23 id24 id25 id26"
   id="g1544" />
 </defs>
 <defs
   class="EmbeddedBulletChars"
   id="defs1578">
  <g
   id="bullet-char-template-57356"
   transform="matrix(4.8828125e-4,0,0,-4.8828125e-4,0,0)">
   <path
   d="M 580,1141 1163,571 580,0 -4,571 Z"
   id="path1548"
   inkscape:connector-curvature="0" />
  </g>
  <g
   id="bullet-char-template-57354"
   transform="matrix(4.8828125e-4,0,0,-4.8828125e-4,0,0)">
   <path
   d="M 8,1128 H 1137 V 0 H 8 Z"
   id="path1551"
   inkscape:connector-curvature="0" />
  </g>
  <g
   id="bullet-char-template-10146"
   transform="matrix(4.8828125e-4,0,0,-4.8828125e-4,0,0)">
   <path
   d="M 174,0 602,739 174,1481 1456,739 Z M 1358,739 309,1346 659,739 Z"
   id="path1554"
   inkscape:connector-curvature="0" />
  </g>
  <g
   id="bullet-char-template-10132"
   transform="matrix(4.8828125e-4,0,0,-4.8828125e-4,0,0)">
   <path
   d="M 2015,739 1276,0 H 717 l 543,543 H 174 v 393 h 1086 l -543,545 h 557 z"
   id="path1557"
   inkscape:connector-curvature="0" />
  </g>
  <g
   id="bullet-char-template-10007"
   transform="matrix(4.8828125e-4,0,0,-4.8828125e-4,0,0)">
   <path
   d="m 0,-2 c -7,16 -16,29 -25,39 l 381,530 c -94,256 -141,385 -141,387 0,25 13,38 40,38 9,0 21,-2 34,-5 21,4 42,12 65,25 l 27,-13 111,-251 280,301 64,-25 24,25 c 21,-10 41,-24 62,-43 C 886,937 835,863 770,784 769,783 710,716 594,584 L 774,223 c 0,-27 -21,-55 -63,-84 l 16,-20 C 717,90 699,76 672,76 641,76 570,178 457,381 L 164,-76 c -22,-34 -53,-51 -92,-51 -42,0 -63,17 -64,51 -7,9 -10,24 -10,44 0,9 1,19 2,30 z"
   id="path1560"
   inkscape:connector-curvature="0" />
  </g>
  <g
   id="bullet-char-template-10004"
   transform="matrix(4.8828125e-4,0,0,-4.8828125e-4,0,0)">
   <path
   d="M 285,-33 C 182,-33 111,30 74,156 52,228 41,333 41,471 c 0,78 14,145 41,201 34,71 87,106 158,106 53,0 88,-31 106,-94 l 23,-176 c 8,-64 28,-97 59,-98 l 735,706 c 11,11 33,17 66,17 42,0 63,-15 63,-46 V 965 c 0,-36 -10,-64 -30,-84 L 442,47 C 390,-6 338,-33 285,-33 Z"
   id="path1563"
   inkscape:connector-curvature="0" />
  </g>
  <g
   id="bullet-char-template-9679"
   transform="matrix(4.8828125e-4,0,0,-4.8828125e-4,0,0)">
   <path
   d="M 813,0 C 632,0 489,54 383,161 276,268 223,411 223,592 c 0,181 53,324 160,431 106,107 249,161 430,161 179,0 323,-54 432,-161 108,-107 162,-251 162,-431 0,-180 -54,-324 -162,-431 C 1136,54 992,0 813,0 Z"
   id="path1566"
   inkscape:connector-curvature="0" />
  </g>
  <g
   id="bullet-char-template-8226"
   transform="matrix(4.8828125e-4,0,0,-4.8828125e-4,0,0)">
   <path
   d="m 346,457 c -73,0 -137,26 -191,78 -54,51 -81,114 -81,188 0,73 27,136 81,188 54,52 118,78 191,78 73,0 134,-26 185,-79 51,-51 77,-114 77,-187 0,-75 -25,-137 -76,-188 -50,-52 -112,-78 -186,-78 z"
   id="path1569"
   inkscape:connector-curvature="0" />
  </g>
  <g
   id="bullet-char-template-8211"
   transform="matrix(4.8828125e-4,0,0,-4.8828125e-4,0,0)">
   <path
   d="M -4,459 H 1135 V 606 H -4 Z"
   id="path1572"
   inkscape:connector-curvature="0" />
  </g>
  <g
   id="bullet-char-template-61548"
   transform="matrix(4.8828125e-4,0,0,-4.8828125e-4,0,0)">
   <path
   d="m 173,740 c 0,163 58,303 173,419 116,115 255,173 419,173 163,0 302,-58 418,-173 116,-116 174,-256 174,-419 0,-163 -58,-303 -174,-418 C 1067,206 928,148 765,148 601,148 462,206 346,322 231,437 173,577 173,740 Z"
   id="path1575"
   inkscape:connector-curvature="0" />
  </g>
 </defs>
 <defs
   class="TextEmbeddedBitmaps"
   id="defs1580" />
 <g
   id="g1585"
   transform="translate(-910.53659,-11330.804)">
  <g
   id="id2"
   class="Master_Slide">
   <g
   id="bg-id2"
   class="Background" />
   <g
   id="bo-id2"
   class="BackgroundObjects" />
  </g>
 </g>
 <g
   id="g1598"
   class="com.sun.star.drawing.TextShape"
   transform="translate(-515.60992,-7644.8215)">
      <g
   transform="translate(13.814312,4166.8215)"
   style="fill-rule:evenodd;stroke-width:28.22200012;stroke-linejoin:round"
   id="id3-6"><rect
   id="rect1587-6"
   height="3323"
   width="2411"
   y="3478"
   x="600"
   class="BoundingBox"
   style="fill:none;stroke:none" /><text
   id="text1595-8"
   class="TextShape"
   x="-394.92667"
   y="921.49554"><tspan
     id="tspan1593-0"
     font-weight="400"
     font-size="1905px"
     class="TextParagraph"
     style="font-weight:400;font-size:3386.66674805px;font-family:'微軟正黑體'"><tspan
       id="tspan1591-9"
       y="6573.4956"
       x="455.07333"
       class="TextPosition"
       style="font-size:3386.66674805px;fill:#000000;stroke:none">⿰出頁</tspan></tspan></text>
<flowRoot
   xml:space="preserve"
   id="flowRoot66"
   style="font-style:normal;font-weight:normal;font-size:13.33333302px;line-height:125%;font-family:sans-serif;letter-spacing:0px;word-spacing:0px;fill:#000000;fill-opacity:1;stroke:none;stroke-width:1px;stroke-linecap:butt;stroke-linejoin:miter;stroke-opacity:1"
   transform="matrix(26.458333,0,0,26.458333,497.48298,-688.8215)"><flowRegion
     id="flowRegion68"><rect
       id="rect70"
       width="861.24982"
       height="326.48685"
       x="-97.101692"
       y="-121.87507" /></flowRegion><flowPara
     id="flowPara72" /></flowRoot></g><path
   style="fill:none;fill-opacity:1;fill-rule:evenodd;stroke:#ff0000;stroke-width:52.91667557;stroke-linecap:butt;stroke-linejoin:miter;stroke-miterlimit:4;stroke-dasharray:none;stroke-opacity:1"
   d="M 515.60992,11441.735 H 10757.375"
   id="path940-7"
   inkscape:connector-curvature="0" /><g
   transform="translate(4322.7413,8087.2577)"
   style="fill-rule:evenodd;stroke-width:28.22200012;stroke-linejoin:round"
   id="id3-6-93"><text
   id="text1595-8-8"
   class="TextShape"
   x="-3894.9268"
   y="7009.2617"><tspan
     id="tspan1593-0-1"
     font-weight="400"
     font-size="1905px"
     class="TextParagraph"
     style="font-weight:400;font-size:3386.66674805px;font-family:'微軟正黑體'">䪼<tspan
   id="tspan1591-9-0"
   y="12661.262"
   x="-3044.9268"
   class="TextPosition"
   style="font-size:3386.66674805px;fill:#000000;stroke:none" /></tspan></text>
<flowRoot
   xml:space="preserve"
   id="flowRoot66-0"
   style="font-style:normal;font-weight:normal;font-size:13.33333302px;line-height:125%;font-family:sans-serif;letter-spacing:0px;word-spacing:0px;fill:#000000;fill-opacity:1;stroke:none;stroke-width:1px;stroke-linecap:butt;stroke-linejoin:miter;stroke-opacity:1"><flowRegion
     id="flowRegion68-1"><rect
       id="rect70-2"
       width="861.24982"
       height="326.48685"
       x="-97.101692"
       y="-121.87507" /></flowRegion><flowPara
     id="flowPara72-3" /></flowRoot></g></g>
</svg>